rtl/tb/cpp/aes_top_tb.vcd
$version Generated by VerilatedVcd $end
$timescale 1ps $end
 $scope module TOP $end
  $var wire 1 G! clk $end
  $var wire 1 H! rst_n $end
  $var wire 1 I! key_load $end
  $var wire 128 J! key_in [127:0] $end
  $var wire 1 N! enc_start $end
  $var wire 128 O! plaintext [127:0] $end
  $var wire 1 S! key_ready $end
  $var wire 128 T! ciphertext [127:0] $end
  $var wire 1 X! enc_done $end
  $scope module aes_top $end
   $var wire 32 ]! KEY_BITS [31:0] $end
   $var wire 1 G! clk $end
   $var wire 1 H! rst_n $end
   $var wire 1 I! key_load $end
   $var wire 128 J! key_in [127:0] $end
   $var wire 1 N! enc_start $end
   $var wire 128 O! plaintext [127:0] $end
   $var wire 1 S! key_ready $end
   $var wire 128 T! ciphertext [127:0] $end
   $var wire 1 X! enc_done $end
   $var wire 4 ^! Nr [3:0] $end
   $var wire 128 c round_key [127:0] $end
   $var wire 128 " round_out [127:0] $end
   $var wire 128 & state [127:0] $end
   $var wire 4 g round_num [3:0] $end
   $var wire 1 * running $end
   $scope module u_ksi $end
    $var wire 32 ]! KEY_BITS [31:0] $end
    $var wire 1 G! clk $end
    $var wire 1 H! rst_n $end
    $var wire 1 I! load $end
    $var wire 128 J! key_in [127:0] $end
    $var wire 4 g round_num [3:0] $end
    $var wire 128 c round_key [127:0] $end
    $var wire 1 S! key_ready $end
    $var wire 4 _! Nk [3:0] $end
    $var wire 4 ^! Nr [3:0] $end
    $var wire 6 `! TOTAL_W [5:0] $end
    $var wire 8 h rcon__Vstatic__rc [7:0] $end
    $var wire 32 i w[0] [31:0] $end
    $var wire 32 j w[1] [31:0] $end
    $var wire 32 k w[2] [31:0] $end
    $var wire 32 l w[3] [31:0] $end
    $var wire 32 m w[4] [31:0] $end
    $var wire 32 n w[5] [31:0] $end
    $var wire 32 o w[6] [31:0] $end
    $var wire 32 p w[7] [31:0] $end
    $var wire 32 q w[8] [31:0] $end
    $var wire 32 r w[9] [31:0] $end
    $var wire 32 s w[10] [31:0] $end
    $var wire 32 t w[11] [31:0] $end
    $var wire 32 u w[12] [31:0] $end
    $var wire 32 v w[13] [31:0] $end
    $var wire 32 w w[14] [31:0] $end
    $var wire 32 x w[15] [31:0] $end
    $var wire 32 y w[16] [31:0] $end
    $var wire 32 z w[17] [31:0] $end
    $var wire 32 { w[18] [31:0] $end
    $var wire 32 | w[19] [31:0] $end
    $var wire 32 } w[20] [31:0] $end
    $var wire 32 ~ w[21] [31:0] $end
    $var wire 32 !! w[22] [31:0] $end
    $var wire 32 "! w[23] [31:0] $end
    $var wire 32 #! w[24] [31:0] $end
    $var wire 32 $! w[25] [31:0] $end
    $var wire 32 %! w[26] [31:0] $end
    $var wire 32 &! w[27] [31:0] $end
    $var wire 32 '! w[28] [31:0] $end
    $var wire 32 (! w[29] [31:0] $end
    $var wire 32 )! w[30] [31:0] $end
    $var wire 32 *! w[31] [31:0] $end
    $var wire 32 +! w[32] [31:0] $end
    $var wire 32 ,! w[33] [31:0] $end
    $var wire 32 -! w[34] [31:0] $end
    $var wire 32 .! w[35] [31:0] $end
    $var wire 32 /! w[36] [31:0] $end
    $var wire 32 0! w[37] [31:0] $end
    $var wire 32 1! w[38] [31:0] $end
    $var wire 32 2! w[39] [31:0] $end
    $var wire 32 3! w[40] [31:0] $end
    $var wire 32 4! w[41] [31:0] $end
    $var wire 32 5! w[42] [31:0] $end
    $var wire 32 6! w[43] [31:0] $end
    $var wire 6 + word_idx [5:0] $end
    $var wire 1 , expanding $end
    $var wire 32 7! sw_in [31:0] $end
    $var wire 32 8! sw_out [31:0] $end
    $var wire 32 9! w_prev [31:0] $end
    $var wire 32 :! w_nk [31:0] $end
    $var wire 32 ;! w_prev_rot [31:0] $end
    $var wire 1 - is_nk_boundary $end
    $var wire 1 a! is_nk_midpoint $end
    $var wire 32 <! new_word [31:0] $end
    $var wire 32 . j [31:0] $end
    $var wire 6 =! rk_base [5:0] $end
    $scope module u_sw $end
     $var wire 32 7! word_in [31:0] $end
     $var wire 32 8! word_out [31:0] $end
     $scope module u0 $end
      $var wire 8 ?! byte_in [7:0] $end
      $var wire 8 @! byte_out [7:0] $end
     $upscope $end
     $scope module u1 $end
      $var wire 8 A! byte_in [7:0] $end
      $var wire 8 B! byte_out [7:0] $end
     $upscope $end
     $scope module u2 $end
      $var wire 8 C! byte_in [7:0] $end
      $var wire 8 D! byte_out [7:0] $end
     $upscope $end
     $scope module u3 $end
      $var wire 8 E! byte_in [7:0] $end
      $var wire 8 F! byte_out [7:0] $end
     $upscope $end
    $upscope $end
   $upscope $end
   $scope module u_round $end
    $var wire 32 ]! KEY_BITS [31:0] $end
    $var wire 1 G! clk $end
    $var wire 1 H! rst_n $end
    $var wire 4 g round_num [3:0] $end
    $var wire 128 & state_in [127:0] $end
    $var wire 128 c round_key [127:0] $end
    $var wire 128 " state_out [127:0] $end
    $var wire 4 ^! Nr [3:0] $end
    $var wire 1 >! last_round $end
    $var wire 128 / after_sub [127:0] $end
    $var wire 128 3 after_shift [127:0] $end
    $var wire 128 7 after_mix [127:0] $end
    $var wire 128 Y! after_ark [127:0] $end
    $scope module u_mix $end
     $var wire 128 3 in [127:0] $end
     $var wire 128 7 out [127:0] $end
     $scope module mc_col[0] $end
      $scope module u_col $end
       $var wire 32 ; in [31:0] $end
       $var wire 32 < out [31:0] $end
       $var wire 8 = s0 [7:0] $end
       $var wire 8 > s1 [7:0] $end
       $var wire 8 ? s2 [7:0] $end
       $var wire 8 @ s3 [7:0] $end
      $upscope $end
     $upscope $end
     $scope module mc_col[1] $end
      $scope module u_col $end
       $var wire 32 A in [31:0] $end
       $var wire 32 B out [31:0] $end
       $var wire 8 C s0 [7:0] $end
       $var wire 8 D s1 [7:0] $end
       $var wire 8 E s2 [7:0] $end
       $var wire 8 F s3 [7:0] $end
      $upscope $end
     $upscope $end
     $scope module mc_col[2] $end
      $scope module u_col $end
       $var wire 32 G in [31:0] $end
       $var wire 32 H out [31:0] $end
       $var wire 8 I s0 [7:0] $end
       $var wire 8 J s1 [7:0] $end
       $var wire 8 K s2 [7:0] $end
       $var wire 8 L s3 [7:0] $end
      $upscope $end
     $upscope $end
     $scope module mc_col[3] $end
      $scope module u_col $end
       $var wire 32 M in [31:0] $end
       $var wire 32 N out [31:0] $end
       $var wire 8 O s0 [7:0] $end
       $var wire 8 P s1 [7:0] $end
       $var wire 8 Q s2 [7:0] $end
       $var wire 8 R s3 [7:0] $end
      $upscope $end
     $upscope $end
    $upscope $end
    $scope module u_shift $end
     $var wire 128 / in [127:0] $end
     $var wire 128 3 out [127:0] $end
    $upscope $end
    $scope module u_sub $end
     $var wire 128 & in [127:0] $end
     $var wire 128 / out [127:0] $end
     $scope module sbox_inst[0] $end
      $scope module u_sbox $end
       $var wire 8 S byte_in [7:0] $end
       $var wire 8 = byte_out [7:0] $end
      $upscope $end
     $upscope $end
     $scope module sbox_inst[10] $end
      $scope module u_sbox $end
       $var wire 8 ] byte_in [7:0] $end
       $var wire 8 ? byte_out [7:0] $end
      $upscope $end
     $upscope $end
     $scope module sbox_inst[11] $end
      $scope module u_sbox $end
       $var wire 8 ^ byte_in [7:0] $end
       $var wire 8 R byte_out [7:0] $end
      $upscope $end
     $upscope $end
     $scope module sbox_inst[12] $end
      $scope module u_sbox $end
       $var wire 8 _ byte_in [7:0] $end
       $var wire 8 O byte_out [7:0] $end
      $upscope $end
     $upscope $end
     $scope module sbox_inst[13] $end
      $scope module u_sbox $end
       $var wire 8 ` byte_in [7:0] $end
       $var wire 8 J byte_out [7:0] $end
      $upscope $end
     $upscope $end
     $scope module sbox_inst[14] $end
      $scope module u_sbox $end
       $var wire 8 a byte_in [7:0] $end
       $var wire 8 E byte_out [7:0] $end
      $upscope $end
     $upscope $end
     $scope module sbox_inst[15] $end
      $scope module u_sbox $end
       $var wire 8 b byte_in [7:0] $end
       $var wire 8 @ byte_out [7:0] $end
      $upscope $end
     $upscope $end
     $scope module sbox_inst[1] $end
      $scope module u_sbox $end
       $var wire 8 T byte_in [7:0] $end
       $var wire 8 P byte_out [7:0] $end
      $upscope $end
     $upscope $end
     $scope module sbox_inst[2] $end
      $scope module u_sbox $end
       $var wire 8 U byte_in [7:0] $end
       $var wire 8 K byte_out [7:0] $end
      $upscope $end
     $upscope $end
     $scope module sbox_inst[3] $end
      $scope module u_sbox $end
       $var wire 8 V byte_in [7:0] $end
       $var wire 8 F byte_out [7:0] $end
      $upscope $end
     $upscope $end
     $scope module sbox_inst[4] $end
      $scope module u_sbox $end
       $var wire 8 W byte_in [7:0] $end
       $var wire 8 C byte_out [7:0] $end
      $upscope $end
     $upscope $end
     $scope module sbox_inst[5] $end
      $scope module u_sbox $end
       $var wire 8 X byte_in [7:0] $end
       $var wire 8 > byte_out [7:0] $end
      $upscope $end
     $upscope $end
     $scope module sbox_inst[6] $end
      $scope module u_sbox $end
       $var wire 8 Y byte_in [7:0] $end
       $var wire 8 Q byte_out [7:0] $end
      $upscope $end
     $upscope $end
     $scope module sbox_inst[7] $end
      $scope module u_sbox $end
       $var wire 8 Z byte_in [7:0] $end
       $var wire 8 L byte_out [7:0] $end
      $upscope $end
     $upscope $end
     $scope module sbox_inst[8] $end
      $scope module u_sbox $end
       $var wire 8 [ byte_in [7:0] $end
       $var wire 8 I byte_out [7:0] $end
      $upscope $end
     $upscope $end
     $scope module sbox_inst[9] $end
      $scope module u_sbox $end
       $var wire 8 \ byte_in [7:0] $end
       $var wire 8 D byte_out [7:0] $end
      $upscope $end
     $upscope $end
    $upscope $end
   $upscope $end
  $upscope $end
 $upscope $end
$enddefinitions $end


#0
b00000000000000000000000000000000000000000000000000000000000000000000000000000000000000000000000000000000000000000000000000000000 "
b00000000000000000000000000000000000000000000000000000000000000000000000000000000000000000000000000000000000000000000000000000000 &
0*
b000000 +
0,
1-
b00000000000000000000000000000000 .
b01100011011000110110001101100011011000110110001101100011011000110110001101100011011000110110001101100011011000110110001101100011 /
b01100011011000110110001101100011011000110110001101100011011000110110001101100011011000110110001101100011011000110110001101100011 3
b01100011011000110110001101100011011000110110001101100011011000110110001101100011011000110110001101100011011000110110001101100011 7
b01100011011000110110001101100011 ;
b01100011011000110110001101100011 <
b01100011 =
b01100011 >
b01100011 ?
b01100011 @
b01100011011000110110001101100011 A
b01100011011000110110001101100011 B
b01100011 C
b01100011 D
b01100011 E
b01100011 F
b01100011011000110110001101100011 G
b01100011011000110110001101100011 H
b01100011 I
b01100011 J
b01100011 K
b01100011 L
b01100011011000110110001101100011 M
b01100011011000110110001101100011 N
b01100011 O
b01100011 P
b01100011 Q
b01100011 R
b00000000 S
b00000000 T
b00000000 U
b00000000 V
b00000000 W
b00000000 X
b00000000 Y
b00000000 Z
b00000000 [
b00000000 \
b00000000 ]
b00000000 ^
b00000000 _
b00000000 `
b00000000 a
b00000000 b
b00000000000000000000000000000000000000000000000000000000000000000000000000000000000000000000000000000000000000000000000000000000 c
b0000 g
b00000000 h
b00000000000000000000000000000000 i
b00000000000000000000000000000000 j
b00000000000000000000000000000000 k
b00000000000000000000000000000000 l
b00000000000000000000000000000000 m
b00000000000000000000000000000000 n
b00000000000000000000000000000000 o
b00000000000000000000000000000000 p
b00000000000000000000000000000000 q
b00000000000000000000000000000000 r
b00000000000000000000000000000000 s
b00000000000000000000000000000000 t
b00000000000000000000000000000000 u
b00000000000000000000000000000000 v
b00000000000000000000000000000000 w
b00000000000000000000000000000000 x
b00000000000000000000000000000000 y
b00000000000000000000000000000000 z
b00000000000000000000000000000000 {
b00000000000000000000000000000000 |
b00000000000000000000000000000000 }
b00000000000000000000000000000000 ~
b00000000000000000000000000000000 !!
b00000000000000000000000000000000 "!
b00000000000000000000000000000000 #!
b00000000000000000000000000000000 $!
b00000000000000000000000000000000 %!
b00000000000000000000000000000000 &!
b00000000000000000000000000000000 '!
b00000000000000000000000000000000 (!
b00000000000000000000000000000000 )!
b00000000000000000000000000000000 *!
b00000000000000000000000000000000 +!
b00000000000000000000000000000000 ,!
b00000000000000000000000000000000 -!
b00000000000000000000000000000000 .!
b00000000000000000000000000000000 /!
b00000000000000000000000000000000 0!
b00000000000000000000000000000000 1!
b00000000000000000000000000000000 2!
b00000000000000000000000000000000 3!
b00000000000000000000000000000000 4!
b00000000000000000000000000000000 5!
b00000000000000000000000000000000 6!
b00000000000000000000000000000000 7!
b01100011011000110110001101100011 8!
b00000000000000000000000000000000 9!
b00000000000000000000000000000000 :!
b00000000000000000000000000000000 ;!
b01100011011000110110001101100011 <!
b000000 =!
0>!
b00000000 ?!
b01100011 @!
b00000000 A!
b01100011 B!
b00000000 C!
b01100011 D!
b00000000 E!
b01100011 F!
0G!
0H!
0I!
b00000000000000000000000000000000000000000000000000000000000000000000000000000000000000000000000000000000000000000000000000000000 J!
0N!
b00000000000000000000000000000000000000000000000000000000000000000000000000000000000000000000000000000000000000000000000000000000 O!
0S!
b00000000000000000000000000000000000000000000000000000000000000000000000000000000000000000000000000000000000000000000000000000000 T!
0X!
b01100011011000110110001101100011011000110110001101100011011000110110001101100011011000110110001101100011011000110110001101100011 Y!
b00000000000000000000000010000000 ]!
b1010 ^!
b0100 _!
b101100 `!
0a!
#5
1G!
#10
0G!
#15
1G!
#20
0G!
#25
1G!
#30
0G!
#35
1G!
#40
0G!
#45
1G!
#50
0G!
#55
1G!
#60
0G!
1H!
#65
b01100011011000110110001101100011011000110110001101100011011000110110001101100011011000110110001101100011011000110110001101100011 "
1G!
#70
0G!
1I!
b00101011011111100001010100010110001010001010111011010010101001101010101111110111000101011000100000001001110011110100111100111100 J!
#75
b000100 +
1,
b00000000000000000000000000000100 .
b00000001 h
b00101011011111100001010100010110 i
b00101000101011101101001010100110 j
b10101011111101110001010110001000 k
b00001001110011110100111100111100 l
b11001111010011110011110000001001 7!
b10001010100001001110101100000001 8!
b00001001110011110100111100111100 9!
b00101011011111100001010100010110 :!
b11001111010011110011110000001001 ;!
b10100000111110101111111000010111 <!
b11001111 ?!
b10001010 @!
b01001111 A!
b10000100 B!
b00111100 C!
b11101011 D!
b00001001 E!
b00000001 F!
1G!
#80
0G!
0I!
#85
b000101 +
0-
b00101011011111100001010100010110001010001010111011010010101001101010101111110111000101011000100000001001110011110100111100111100 c
b10100000111110101111111000010111 m
b10100000111110101111111000010111 7!
b11100000001011011011101111110000 8!
b10100000111110101111111000010111 9!
b00101000101011101101001010100110 :!
b11111010111111100001011110100000 ;!
b10001000010101000010110010110001 <!
b10100000 ?!
b11100000 @!
b11111010 A!
b00101101 B!
b11111110 C!
b10111011 D!
b00010111 E!
b11110000 F!
1G!
b01001000000111010111011001110101010010111100110110110001110001011100100010010100011101101110101101101010101011000010110001011111 Y!
#90
0G!
#95
b01001000000111010111011001110101010010111100110110110001110001011100100010010100011101101110101101101010101011000010110001011111 "
b000110 +
b10001000010101000010110010110001 n
b10001000010101000010110010110001 7!
b11000100001000000111000111001000 8!
b10001000010101000010110010110001 9!
b10101011111101110001010110001000 :!
b01010100001011001011000110001000 ;!
b00100011101000110011100100111001 <!
b10001000 ?!
b11000100 @!
b01010100 A!
b00100000 B!
b00101100 C!
b01110001 D!
b10110001 E!
b11001000 F!
1G!
#100
0G!
#105
b000111 +
b00100011101000110011100100111001 o
b00100011101000110011100100111001 7!
b00100110000010100001001000010010 8!
b00100011101000110011100100111001 9!
b00001001110011110100111100111100 :!
b10100011001110010011100100100011 ;!
b00101010011011000111011000000101 <!
b00100011 ?!
b00100110 @!
b10100011 A!
b00001010 B!
b00111001 C!
b00010010 D!
b00111001 E!
b00010010 F!
1G!
#110
0G!
#115
b001000 +
1-
b00000010 h
b00101010011011000111011000000101 p
b01101100011101100000010100101010 7!
b01010000001110000110101111100101 8!
b00101010011011000111011000000101 9!
b10100000111110101111111000010111 :!
b01101100011101100000010100101010 ;!
b11110010110000101001010111110010 <!
b01101100 ?!
b01010000 @!
b01110110 A!
b00111000 B!
b00000101 C!
b01101011 D!
b00101010 E!
b11100101 F!
1G!
#120
0G!
#125
b001001 +
0-
b11110010110000101001010111110010 q
b11110010110000101001010111110010 7!
b10001001001001010010101010001001 8!
b11110010110000101001010111110010 9!
b10001000010101000010110010110001 :!
b11000010100101011111001011110010 ;!
b01111010100101101011100101000011 <!
b11110010 ?!
b10001001 @!
b11000010 A!
b00100101 B!
b10010101 C!
b00101010 D!
b11110010 E!
b10001001 F!
1G!
#130
0G!
#135
b001010 +
b01111010100101101011100101000011 r
b01111010100101101011100101000011 7!
b11011010100100000101011000011010 8!
b01111010100101101011100101000011 9!
b00100011101000110011100100111001 :!
b10010110101110010100001101111010 ;!
b01011001001101011000000001111010 <!
b01111010 ?!
b11011010 @!
b10010110 A!
b10010000 B!
b10111001 C!
b01010110 D!
b01000011 E!
b00011010 F!
1G!
#140
0G!
#145
b001011 +
b01011001001101011000000001111010 s
b01011001001101011000000001111010 7!
b11001011100101101100110111011010 8!
b01011001001101011000000001111010 9!
b00101010011011000111011000000101 :!
b00110101100000000111101001011001 ;!
b01110011010110011111011001111111 <!
b01011001 ?!
b11001011 @!
b00110101 A!
b10010110 B!
b10000000 C!
b11001101 D!
b01111010 E!
b11011010 F!
1G!
#150
0G!
#155
b001100 +
1-
b00000100 h
b01110011010110011111011001111111 t
b01011001111101100111111101110011 7!
b11001011010000101101001010001111 8!
b01110011010110011111011001111111 9!
b11110010110000101001010111110010 :!
b01011001111101100111111101110011 ;!
b00111101100000000100011101111101 <!
b11110110 A!
b01000010 B!
b01111111 C!
b11010010 D!
b01110011 E!
b10001111 F!
1G!
#160
0G!
#165
b001101 +
0-
b00111101100000000100011101111101 u
b00111101100000000100011101111101 7!
b00100111110011011010000011111111 8!
b00111101100000000100011101111101 9!
b01111010100101101011100101000011 :!
b10000000010001110111110100111101 ;!
b01000111000101101111111000111110 <!
b00111101 ?!
b00100111 @!
b10000000 A!
b11001101 B!
b01000111 C!
b10100000 D!
b01111101 E!
b11111111 F!
1G!
#170
0G!
#175
b001110 +
b01000111000101101111111000111110 v
b01000111000101101111111000111110 7!
b10100000010001111011101110110010 8!
b01000111000101101111111000111110 9!
b01011001001101011000000001111010 :!
b00010110111111100011111001000111 ;!
b00011110001000110111111001000100 <!
b01000111 ?!
b10100000 @!
b00010110 A!
b01000111 B!
b11111110 C!
b10111011 D!
b00111110 E!
b10110010 F!
1G!
#180
0G!
#185
b001111 +
b00011110001000110111111001000100 w
b00011110001000110111111001000100 7!
b01110010001001101111001100011011 8!
b00011110001000110111111001000100 9!
b01110011010110011111011001111111 :!
b00100011011111100100010000011110 ;!
b01101101011110101000100000111011 <!
b00011110 ?!
b01110010 @!
b00100011 A!
b00100110 B!
b01111110 C!
b11110011 D!
b01000100 E!
b00011011 F!
1G!
#190
0G!
#195
b010000 +
1-
b00001000 h
b01101101011110101000100000111011 x
b01111010100010000011101101101101 7!
b11011010110001001110001000111100 8!
b01101101011110101000100000111011 9!
b00111101100000000100011101111101 :!
b01111010100010000011101101101101 ;!
b11101111010001001010010101000001 <!
b01111010 ?!
b11011010 @!
b10001000 A!
b11000100 B!
b00111011 C!
b11100010 D!
b01101101 E!
b00111100 F!
1G!
#200
0G!
#205
b010001 +
0-
b11101111010001001010010101000001 y
b11101111010001001010010101000001 7!
b11011111000110110000011010000011 8!
b11101111010001001010010101000001 9!
b01000111000101101111111000111110 :!
b01000100101001010100000111101111 ;!
b10101000010100100101101101111111 <!
b11101111 ?!
b11011111 @!
b01000100 A!
b00011011 B!
b10100101 C!
b00000110 D!
b01000001 E!
b10000011 F!
1G!
#210
0G!
#215
b010010 +
b10101000010100100101101101111111 z
b10101000010100100101101101111111 7!
b11000010000000000011100111010010 8!
b10101000010100100101101101111111 9!
b00011110001000110111111001000100 :!
b01010010010110110111111110101000 ;!
b10110110011100010010010100111011 <!
b10101000 ?!
b11000010 @!
b01010010 A!
b00000000 B!
b01011011 C!
b00111001 D!
b01111111 E!
b11010010 F!
1G!
#220
0G!
#225
b010011 +
b10110110011100010010010100111011 {
b10110110011100010010010100111011 7!
b01001110101000110011111111100010 8!
b10110110011100010010010100111011 9!
b01101101011110101000100000111011 :!
b01110001001001010011101110110110 ;!
b11011011000010111010110100000000 <!
b10110110 ?!
b01001110 @!
b01110001 A!
b10100011 B!
b00100101 C!
b00111111 D!
b00111011 E!
b11100010 F!
1G!
#230
0G!
#235
b010100 +
1-
b00010000 h
b11011011000010111010110100000000 |
b00001011101011010000000011011011 7!
b00101011100101010110001110111001 8!
b11011011000010111010110100000000 9!
b11101111010001001010010101000001 :!
b00001011101011010000000011011011 ;!
b11010100110100011100011011111000 <!
b00001011 ?!
b00101011 @!
b10101101 A!
b10010101 B!
b00000000 C!
b01100011 D!
b11011011 E!
b10111001 F!
1G!
#240
0G!
#245
b010101 +
0-
b11010100110100011100011011111000 }
b11010100110100011100011011111000 7!
b01001000001111101011010001000001 8!
b11010100110100011100011011111000 9!
b10101000010100100101101101111111 :!
b11010001110001101111100011010100 ;!
b01111100100000111001110110000111 <!
b11010100 ?!
b01001000 @!
b11010001 A!
b00111110 B!
b11000110 C!
b10110100 D!
b11111000 E!
b01000001 F!
1G!
#250
0G!
#255
b010110 +
b01111100100000111001110110000111 ~
b01111100100000111001110110000111 7!
b00010000111011000101111000010111 8!
b01111100100000111001110110000111 9!
b10110110011100010010010100111011 :!
b10000011100111011000011101111100 ;!
b11001010111100101011100010111100 <!
b01111100 ?!
b00010000 @!
b10000011 A!
b11101100 B!
b10011101 C!
b01011110 D!
b10000111 E!
b00010111 F!
1G!
#260
0G!
#265
b010111 +
b11001010111100101011100010111100 !!
b11001010111100101011100010111100 7!
b01110100100010010110110001100101 8!
b11001010111100101011100010111100 9!
b11011011000010111010110100000000 :!
b11110010101110001011110011001010 ;!
b00010001111110010001010110111100 <!
b11001010 ?!
b01110100 @!
b11110010 A!
b10001001 B!
b10111000 C!
b01101100 D!
b10111100 E!
b01100101 F!
1G!
#270
0G!
#275
b011000 +
1-
b00100000 h
b00010001111110010001010110111100 "!
b11111001000101011011110000010001 7!
b10011001010110010110010110000010 8!
b00010001111110010001010110111100 9!
b11010100110100011100011011111000 :!
b11111001000101011011110000010001 ;!
b01101101100010001010001101111010 <!
b11111001 ?!
b10011001 @!
b00010101 A!
b01011001 B!
b10111100 C!
b01100101 D!
b00010001 E!
b10000010 F!
1G!
#280
0G!
#285
b011001 +
0-
b01101101100010001010001101111010 #!
b01101101100010001010001101111010 7!
b00111100110001000000101011011010 8!
b01101101100010001010001101111010 9!
b01111100100000111001110110000111 :!
b10001000101000110111101001101101 ;!
b00010001000010110011111011111101 <!
b01101101 ?!
b00111100 @!
b10001000 A!
b11000100 B!
b10100011 C!
b00001010 D!
b01111010 E!
b11011010 F!
1G!
#290
0G!
#295
b011010 +
b00010001000010110011111011111101 $!
b00010001000010110011111011111101 7!
b10000010001010111011001001010100 8!
b00010001000010110011111011111101 9!
b11001010111100101011100010111100 :!
b00001011001111101111110100010001 ;!
b11011011111110011000011001000001 <!
b00010001 ?!
b10000010 @!
b00001011 A!
b00101011 B!
b00111110 C!
b10110010 D!
b11111101 E!
b01010100 F!
1G!
#300
0G!
#305
b011011 +
b11011011111110011000011001000001 %!
b11011011111110011000011001000001 7!
b10111001100110010100010010000011 8!
b11011011111110011000011001000001 9!
b00010001111110010001010110111100 :!
b11111001100001100100000111011011 ;!
b11001010000000001001001111111101 <!
b11011011 ?!
b10111001 @!
b11111001 A!
b10011001 B!
b10000110 C!
b01000100 D!
b01000001 E!
b10000011 F!
1G!
#310
0G!
#315
b011100 +
1-
b01000000 h
b11001010000000001001001111111101 &!
b00000000100100111111110111001010 7!
b01100011110111000101010001110100 8!
b11001010000000001001001111111101 9!
b01101101100010001010001101111010 :!
b00000000100100111111110111001010 ;!
b01001110010101001111011100001110 <!
b00000000 ?!
b01100011 @!
b10010011 A!
b11011100 B!
b11111101 C!
b01010100 D!
b11001010 E!
b01110100 F!
1G!
#320
0G!
#325
b011101 +
0-
b01001110010101001111011100001110 '!
b01001110010101001111011100001110 7!
b00101111001000000110100010101011 8!
b01001110010101001111011100001110 9!
b00010001000010110011111011111101 :!
b01010100111101110000111001001110 ;!
b01011111010111111100100111110011 <!
b01001110 ?!
b00101111 @!
b01010100 A!
b00100000 B!
b11110111 C!
b01101000 D!
b00001110 E!
b10101011 F!
1G!
#330
0G!
#335
b011110 +
b01011111010111111100100111110011 (!
b01011111010111111100100111110011 7!
b11001111110011111101110100001101 8!
b01011111010111111100100111110011 9!
b11011011111110011000011001000001 :!
b01011111110010011111001101011111 ;!
b10000100101001100100111110110010 <!
b01011111 ?!
b11001111 @!
b01011111 A!
b11001111 B!
b11001001 C!
b11011101 D!
b11110011 E!
b00001101 F!
1G!
#340
0G!
#345
b011111 +
b10000100101001100100111110110010 )!
b10000100101001100100111110110010 7!
b01011111001001001000010000110111 8!
b10000100101001100100111110110010 9!
b11001010000000001001001111111101 :!
b10100110010011111011001010000100 ;!
b01001110101001101101110001001111 <!
b10000100 ?!
b01011111 @!
b10100110 A!
b00100100 B!
b01001111 C!
b10000100 D!
b10110010 E!
b00110111 F!
1G!
#350
0G!
#355
b100000 +
1-
b10000000 h
b01001110101001101101110001001111 *!
b10100110110111000100111101001110 7!
b00100100100001101000010000101111 8!
b01001110101001101101110001001111 9!
b01001110010101001111011100001110 :!
b10100110110111000100111101001110 ;!
b11101010110100100111001100100001 <!
b10100110 ?!
b00100100 @!
b11011100 A!
b10000110 B!
b01001110 E!
b00101111 F!
1G!
#360
0G!
#365
b100001 +
0-
b11101010110100100111001100100001 +!
b11101010110100100111001100100001 7!
b10000111101101011000111111111101 8!
b11101010110100100111001100100001 9!
b01011111010111111100100111110011 :!
b11010010011100110010000111101010 ;!
b10110101100011011011101011010010 <!
b11101010 ?!
b10000111 @!
b11010010 A!
b10110101 B!
b01110011 C!
b10001111 D!
b00100001 E!
b11111101 F!
1G!
#370
0G!
#375
b100010 +
b10110101100011011011101011010010 ,!
b10110101100011011011101011010010 7!
b11010101010111011111010010110101 8!
b10110101100011011011101011010010 9!
b10000100101001100100111110110010 :!
b10001101101110101101001010110101 ;!
b00110001001010111111010101100000 <!
b10110101 ?!
b11010101 @!
b10001101 A!
b01011101 B!
b10111010 C!
b11110100 D!
b11010010 E!
b10110101 F!
1G!
#380
0G!
#385
b100011 +
b00110001001010111111010101100000 -!
b00110001001010111111010101100000 7!
b11000111111100011110011011010000 8!
b00110001001010111111010101100000 9!
b01001110101001101101110001001111 :!
b00101011111101010110000000110001 ;!
b01111111100011010010100100101111 <!
b00110001 ?!
b11000111 @!
b00101011 A!
b11110001 B!
b11110101 C!
b11100110 D!
b01100000 E!
b11010000 F!
1G!
#390
0G!
#395
b100100 +
1-
b00011011 h
b01111111100011010010100100101111 .!
b10001101001010010010111101111111 7!
b01011101101001010001010111010010 8!
b01111111100011010010100100101111 9!
b11101010110100100111001100100001 :!
b10001101001010010010111101111111 ;!
b10101100011101110110011011110011 <!
b10001101 ?!
b01011101 @!
b00101001 A!
b10100101 B!
b00101111 C!
b00010101 D!
b01111111 E!
b11010010 F!
1G!
#400
0G!
#405
b100101 +
0-
b10101100011101110110011011110011 /!
b10101100011101110110011011110011 7!
b10010001111101010011001100001101 8!
b10101100011101110110011011110011 9!
b10110101100011011011101011010010 :!
b01110111011001101111001110101100 ;!
b00011001111110101101110000100001 <!
b10101100 ?!
b10010001 @!
b01110111 A!
b11110101 B!
b01100110 C!
b00110011 D!
b11110011 E!
b00001101 F!
1G!
#410
0G!
#415
b100110 +
b00011001111110101101110000100001 0!
b00011001111110101101110000100001 7!
b11010100001011011000011011111101 8!
b00011001111110101101110000100001 9!
b00110001001010111111010101100000 :!
b11111010110111000010000100011001 ;!
b00101000110100010010100101000001 <!
b00011001 ?!
b11010100 @!
b11111010 A!
b00101101 B!
b11011100 C!
b10000110 D!
b00100001 E!
b11111101 F!
1G!
#420
0G!
#425
b100111 +
b00101000110100010010100101000001 1!
b00101000110100010010100101000001 7!
b00110100001111101010010110000011 8!
b00101000110100010010100101000001 9!
b01111111100011010010100100101111 :!
b11010001001010010100000100101000 ;!
b01010111010111000000000001101110 <!
b00101000 ?!
b00110100 @!
b11010001 A!
b00111110 B!
b00101001 C!
b10100101 D!
b01000001 E!
b10000011 F!
1G!
#430
0G!
#435
b101000 +
1-
b00110110 h
b01010111010111000000000001101110 2!
b01011100000000000110111001010111 7!
b01001010011000111001111101011011 8!
b01010111010111000000000001101110 9!
b10101100011101110110011011110011 :!
b01011100000000000110111001010111 ;!
b11010000000101001111100110101000 <!
b01011100 ?!
b01001010 @!
b00000000 A!
b01100011 B!
b01101110 C!
b10011111 D!
b01010111 E!
b01011011 F!
1G!
#440
0G!
#445
b101001 +
0-
b11010000000101001111100110101000 3!
b11010000000101001111100110101000 7!
b01110000111110101001100111000010 8!
b11010000000101001111100110101000 9!
b00011001111110101101110000100001 :!
b00010100111110011010100011010000 ;!
b11001001111011100010010110001001 <!
b11010000 ?!
b01110000 @!
b00010100 A!
b11111010 B!
b11111001 C!
b10011001 D!
b10101000 E!
b11000010 F!
1G!
#450
0G!
#455
b101010 +
b11001001111011100010010110001001 4!
b11001001111011100010010110001001 7!
b11011101001010000011111110100111 8!
b11001001111011100010010110001001 9!
b00101000110100010010100101000001 :!
b11101110001001011000100111001001 ;!
b11100001001111110000110011001000 <!
b11001001 ?!
b11011101 @!
b11101110 A!
b00101000 B!
b00100101 C!
b00111111 D!
b10001001 E!
b10100111 F!
1G!
#460
0G!
